Exercise 05
…
print(DistSample)

# A tibble: 6,000 × 3
   Decade DistSample_mean DistSample_sd
    <dbl>           <dbl>         <dbl>
 1   1920            95.8          26.0
 2   1920            96.3          27.0
 3   1920            93.7          25.7
 4   1920            97.6          28.0
 5   1920            96.0          26.9
 6   1920            98.9          26.5
 7   1920            98.3          26.7
 8   1920            98.2          26.3
 9   1920            96.2          26.0
10   1920            97.4          27.9
# ℹ 5,990 more rows
…
